Circuit: * Z:\home\gilou\git\inverter-prototype-board\simulations\inverter\Draft1.asc

WARNING: Less than two connections to node PWM1.  This node is used by A3.
WARNING: Less than two connections to node PWM2.  This node is used by A4.
Direct Newton iteration for .op point succeeded.

Date: Mon Nov 11 07:34:05 2019
Total elapsed time: 0.775 seconds.

tnom = 27
temp = 27
method = modified trap
totiter = 353428
traniter = 353422
tranpoints = 95364
accept = 72442
rejected = 22922
matrix size = 10
fillins = 0
solver = Normal
Matrix Compiler1: 166 bytes object code size  0.3/0.3/[0.3]
Matrix Compiler2: 422 bytes object code size  0.4/0.4/[0.3]

