EESchema Schematic File Version 4
EELAYER 30 0
EELAYER END
$Descr A4 11693 8268
encoding utf-8
Sheet 4 7
Title ""
Date ""
Rev ""
Comp ""
Comment1 ""
Comment2 ""
Comment3 ""
Comment4 ""
$EndDescr
Wire Wire Line
	3000 3350 3000 2000
Wire Wire Line
	2250 2000 2500 2000
Text HLabel 6425 3250 2    50   Output ~ 0
hached
Text HLabel 4500 2500 0    50   Input ~ 0
high_pwm
Text HLabel 4500 4250 0    50   Input ~ 0
low_pwm
Wire Wire Line
	2500 3650 2500 5000
Wire Wire Line
	2500 3350 2500 2000
$Comp
L Device:CP C?
U 1 1 5E261B00
P 2500 3500
AR Path="/5D802728/5E261B00" Ref="C?"  Part="1" 
AR Path="/5D802728/5E258CFD/5E261B00" Ref="C1"  Part="1" 
AR Path="/5D802728/5E27E3B4/5E261B00" Ref="C7"  Part="1" 
F 0 "C7" H 2618 3546 50  0000 L CNN
F 1 "100u" H 2618 3455 50  0000 L CNN
F 2 "Capacitor_THT:CP_Radial_D25.0mm_P10.00mm_SnapIn" H 2538 3350 50  0001 C CNN
F 3 "https://docs.rs-online.com/1f66/0900766b815d39e3.pdf" H 2500 3500 50  0001 C CNN
F 4 "861141484009" H 2500 3500 50  0001 C CNN "Model"
	1    2500 3500
	1    0    0    -1  
$EndComp
Connection ~ 2500 2000
Wire Wire Line
	2500 2000 3000 2000
Wire Wire Line
	2250 5000 2500 5000
Connection ~ 2500 5000
Wire Wire Line
	3000 3650 3000 5000
$Comp
L Device:CP C?
U 1 1 5E261B17
P 3000 3500
AR Path="/5D802728/5E261B17" Ref="C?"  Part="1" 
AR Path="/5D802728/5E258CFD/5E261B17" Ref="C2"  Part="1" 
AR Path="/5D802728/5E27E3B4/5E261B17" Ref="C8"  Part="1" 
F 0 "C8" H 3118 3546 50  0000 L CNN
F 1 "100u" H 3118 3455 50  0000 L CNN
F 2 "Capacitor_THT:CP_Radial_D25.0mm_P10.00mm_SnapIn" H 3038 3350 50  0001 C CNN
F 3 "https://docs.rs-online.com/1f66/0900766b815d39e3.pdf" H 3000 3500 50  0001 C CNN
F 4 "861141484009" H 3000 3500 50  0001 C CNN "Model"
	1    3000 3500
	1    0    0    -1  
$EndComp
$Comp
L Device:C C?
U 1 1 5E261B1D
P 3500 3500
AR Path="/5D802728/5E261B1D" Ref="C?"  Part="1" 
AR Path="/5D802728/5E258CFD/5E261B1D" Ref="C4"  Part="1" 
AR Path="/5D802728/5E27E3B4/5E261B1D" Ref="C9"  Part="1" 
F 0 "C9" H 3615 3546 50  0000 L CNN
F 1 "100n" H 3615 3455 50  0000 L CNN
F 2 "Capacitor_SMD:C_1812_4532Metric" H 3538 3350 50  0001 C CNN
F 3 "~" H 3500 3500 50  0001 C CNN
	1    3500 3500
	1    0    0    -1  
$EndComp
Wire Wire Line
	5675 3250 6425 3250
Wire Wire Line
	3500 5000 3000 5000
Connection ~ 3000 5000
Wire Wire Line
	3000 2000 3500 2000
Connection ~ 3000 2000
Wire Wire Line
	2500 5000 3000 5000
Text HLabel 2250 5000 0    50   Input ~ 0
Vbus_low
Text HLabel 2250 2000 0    50   Input ~ 0
Vbus_high
$Comp
L power:GNDPWR #PWR0101
U 1 1 5E28F990
P 3000 5125
AR Path="/5D802728/5E258CFD/5E28F990" Ref="#PWR0101"  Part="1" 
AR Path="/5D802728/5E27E3B4/5E28F990" Ref="#PWR0102"  Part="1" 
F 0 "#PWR0102" H 3000 4925 50  0001 C CNN
F 1 "GNDPWR" H 3004 4971 50  0000 C CNN
F 2 "" H 3000 5075 50  0001 C CNN
F 3 "" H 3000 5075 50  0001 C CNN
	1    3000 5125
	1    0    0    -1  
$EndComp
Wire Wire Line
	3000 5125 3000 5000
$Comp
L IPB-rescue:Q_NMOS_DGS-Device-IPB-rescue-IPB-rescue-IPB-rescue Q?
U 1 1 5E4025EE
P 5575 2500
AR Path="/5E4025EE" Ref="Q?"  Part="1" 
AR Path="/5D802728/5E4025EE" Ref="Q?"  Part="1" 
AR Path="/5D802728/5E258CFD/5E265310/5E4025EE" Ref="Q?"  Part="1" 
AR Path="/5D802728/5E258CFD/5E26B40F/5E4025EE" Ref="Q?"  Part="1" 
AR Path="/5D802728/5E258CFD/5E270930/5E4025EE" Ref="Q?"  Part="1" 
AR Path="/5D802728/5E27E3B4/5E265310/5E4025EE" Ref="Q?"  Part="1" 
AR Path="/5D802728/5E27E3B4/5E270930/5E4025EE" Ref="Q?"  Part="1" 
AR Path="/5D802728/5E27E3B4/5E4025EE" Ref="Q3"  Part="1" 
AR Path="/5D802728/5E258CFD/5E4025EE" Ref="Q1"  Part="1" 
F 0 "Q3" H 5475 2725 50  0000 L CNN
F 1 " IPP65R045C7XKSA1" H 5650 2200 50  0000 L CNN
F 2 "Package_TO_SOT_THT:TO-220-3_Vertical" H 5775 2600 50  0001 C CNN
F 3 "https://docs.rs-online.com/43f8/0900766b814780b7.pdf" H 5575 2500 50  0001 C CNN
	1    5575 2500
	1    0    0    -1  
$EndComp
Wire Wire Line
	5675 2300 5675 2000
$Comp
L Device:R R?
U 1 1 5E4025F6
P 5175 2500
AR Path="/5E4025F6" Ref="R?"  Part="1" 
AR Path="/5D802728/5E4025F6" Ref="R?"  Part="1" 
AR Path="/5D802728/5E258CFD/5E265310/5E4025F6" Ref="R?"  Part="1" 
AR Path="/5D802728/5E258CFD/5E26B40F/5E4025F6" Ref="R?"  Part="1" 
AR Path="/5D802728/5E258CFD/5E270930/5E4025F6" Ref="R?"  Part="1" 
AR Path="/5D802728/5E27E3B4/5E265310/5E4025F6" Ref="R?"  Part="1" 
AR Path="/5D802728/5E27E3B4/5E270930/5E4025F6" Ref="R?"  Part="1" 
AR Path="/5D802728/5E27E3B4/5E4025F6" Ref="R13"  Part="1" 
AR Path="/5D802728/5E258CFD/5E4025F6" Ref="R1"  Part="1" 
F 0 "R13" V 4968 2500 50  0000 C CNN
F 1 "10" V 5059 2500 50  0000 C CNN
F 2 "Resistor_SMD:R_0805_2012Metric" V 5105 2500 50  0001 C CNN
F 3 "~" H 5175 2500 50  0001 C CNN
	1    5175 2500
	0    1    1    0   
$EndComp
Wire Wire Line
	4975 2500 4975 2725
Wire Wire Line
	4975 2500 5025 2500
Wire Wire Line
	5375 2500 5375 2725
Connection ~ 5375 2500
$Comp
L Device:R R?
U 1 1 5E402600
P 5375 2950
AR Path="/5D802728/5E402600" Ref="R?"  Part="1" 
AR Path="/5D802728/5E258CFD/5E265310/5E402600" Ref="R?"  Part="1" 
AR Path="/5D802728/5E258CFD/5E26B40F/5E402600" Ref="R?"  Part="1" 
AR Path="/5D802728/5E258CFD/5E270930/5E402600" Ref="R?"  Part="1" 
AR Path="/5D802728/5E27E3B4/5E265310/5E402600" Ref="R?"  Part="1" 
AR Path="/5D802728/5E27E3B4/5E270930/5E402600" Ref="R?"  Part="1" 
AR Path="/5D802728/5E27E3B4/5E402600" Ref="R15"  Part="1" 
AR Path="/5D802728/5E258CFD/5E402600" Ref="R3"  Part="1" 
F 0 "R15" H 5305 2996 50  0000 R CNN
F 1 "150k" H 5305 2905 50  0000 R CNN
F 2 "Resistor_SMD:R_0805_2012Metric" V 5305 2950 50  0001 C CNN
F 3 "~" H 5375 2950 50  0001 C CNN
	1    5375 2950
	-1   0    0    -1  
$EndComp
Wire Wire Line
	5375 2800 5375 2725
Wire Wire Line
	5375 3100 5375 3250
Connection ~ 5675 2000
Connection ~ 4975 2500
$Comp
L Device:C C?
U 1 1 5E40260A
P 6575 2650
AR Path="/5D802728/5E40260A" Ref="C?"  Part="1" 
AR Path="/5D802728/5E258CFD/5E265310/5E40260A" Ref="C?"  Part="1" 
AR Path="/5D802728/5E258CFD/5E26B40F/5E40260A" Ref="C?"  Part="1" 
AR Path="/5D802728/5E258CFD/5E270930/5E40260A" Ref="C?"  Part="1" 
AR Path="/5D802728/5E27E3B4/5E265310/5E40260A" Ref="C?"  Part="1" 
AR Path="/5D802728/5E27E3B4/5E270930/5E40260A" Ref="C?"  Part="1" 
AR Path="/5D802728/5E27E3B4/5E40260A" Ref="C10"  Part="1" 
AR Path="/5D802728/5E258CFD/5E40260A" Ref="C5"  Part="1" 
F 0 "C10" H 6690 2696 50  0000 L CNN
F 1 "100n" H 6690 2605 50  0000 L CNN
F 2 "Capacitor_SMD:C_1812_4532Metric" H 6613 2500 50  0001 C CNN
F 3 "~" H 6575 2650 50  0001 C CNN
	1    6575 2650
	1    0    0    -1  
$EndComp
$Comp
L Device:D_Schottky D?
U 1 1 5E402610
P 6950 2650
AR Path="/5D802728/5E402610" Ref="D?"  Part="1" 
AR Path="/5D802728/5E258CFD/5E265310/5E402610" Ref="D?"  Part="1" 
AR Path="/5D802728/5E258CFD/5E26B40F/5E402610" Ref="D?"  Part="1" 
AR Path="/5D802728/5E258CFD/5E270930/5E402610" Ref="D?"  Part="1" 
AR Path="/5D802728/5E27E3B4/5E265310/5E402610" Ref="D?"  Part="1" 
AR Path="/5D802728/5E27E3B4/5E270930/5E402610" Ref="D?"  Part="1" 
AR Path="/5D802728/5E27E3B4/5E402610" Ref="D7"  Part="1" 
AR Path="/5D802728/5E258CFD/5E402610" Ref="D3"  Part="1" 
F 0 "D7" V 6904 2729 50  0000 L CNN
F 1 "ES1J" V 6995 2729 50  0000 L CNN
F 2 "Diode_SMD:D_SMA" H 6950 2650 50  0001 C CNN
F 3 "https://docs-emea.rs-online.com/webdocs/1386/0900766b81386437.pdf" H 6950 2650 50  0001 C CNN
	1    6950 2650
	0    1    1    0   
$EndComp
Wire Wire Line
	6950 2800 6950 2900
Wire Wire Line
	6950 2900 6575 2900
Wire Wire Line
	6575 2800 6575 2900
Connection ~ 6575 2900
Wire Wire Line
	5000 2725 4975 2725
Wire Wire Line
	5300 2725 5375 2725
Connection ~ 5375 2725
Wire Wire Line
	5375 2500 5325 2500
Wire Wire Line
	5675 2700 5675 2900
Wire Wire Line
	5675 2900 6575 2900
Connection ~ 5675 2900
Wire Wire Line
	5675 2900 5675 3250
Wire Wire Line
	6950 2500 6950 2000
Wire Wire Line
	5900 2000 5900 2100
$Comp
L Device:R R?
U 1 1 5E402624
P 6375 2250
AR Path="/5D802728/5E402624" Ref="R?"  Part="1" 
AR Path="/5D802728/5E258CFD/5E265310/5E402624" Ref="R?"  Part="1" 
AR Path="/5D802728/5E258CFD/5E26B40F/5E402624" Ref="R?"  Part="1" 
AR Path="/5D802728/5E258CFD/5E270930/5E402624" Ref="R?"  Part="1" 
AR Path="/5D802728/5E27E3B4/5E265310/5E402624" Ref="R?"  Part="1" 
AR Path="/5D802728/5E27E3B4/5E270930/5E402624" Ref="R?"  Part="1" 
AR Path="/5D802728/5E27E3B4/5E402624" Ref="R23"  Part="1" 
AR Path="/5D802728/5E258CFD/5E402624" Ref="R11"  Part="1" 
F 0 "R23" H 6275 2700 50  0000 L CNN
F 1 "10k" H 6275 2600 50  0000 L CNN
F 2 "Resistor_SMD:R_0805_2012Metric" V 6305 2250 50  0001 C CNN
F 3 "~" H 6375 2250 50  0001 C CNN
	1    6375 2250
	1    0    0    -1  
$EndComp
$Comp
L Device:R R?
U 1 1 5E40262A
P 5900 2250
AR Path="/5D802728/5E40262A" Ref="R?"  Part="1" 
AR Path="/5D802728/5E258CFD/5E265310/5E40262A" Ref="R?"  Part="1" 
AR Path="/5D802728/5E258CFD/5E26B40F/5E40262A" Ref="R?"  Part="1" 
AR Path="/5D802728/5E258CFD/5E270930/5E40262A" Ref="R?"  Part="1" 
AR Path="/5D802728/5E27E3B4/5E265310/5E40262A" Ref="R?"  Part="1" 
AR Path="/5D802728/5E27E3B4/5E270930/5E40262A" Ref="R?"  Part="1" 
AR Path="/5D802728/5E27E3B4/5E40262A" Ref="R17"  Part="1" 
AR Path="/5D802728/5E258CFD/5E40262A" Ref="R5"  Part="1" 
F 0 "R17" H 5825 2700 50  0000 L CNN
F 1 "10k" H 5825 2600 50  0000 L CNN
F 2 "Resistor_SMD:R_0805_2012Metric" V 5830 2250 50  0001 C CNN
F 3 "~" H 5900 2250 50  0001 C CNN
	1    5900 2250
	1    0    0    -1  
$EndComp
$Comp
L Device:R R?
U 1 1 5E402630
P 6050 2250
AR Path="/5D802728/5E402630" Ref="R?"  Part="1" 
AR Path="/5D802728/5E258CFD/5E265310/5E402630" Ref="R?"  Part="1" 
AR Path="/5D802728/5E258CFD/5E26B40F/5E402630" Ref="R?"  Part="1" 
AR Path="/5D802728/5E258CFD/5E270930/5E402630" Ref="R?"  Part="1" 
AR Path="/5D802728/5E27E3B4/5E265310/5E402630" Ref="R?"  Part="1" 
AR Path="/5D802728/5E27E3B4/5E270930/5E402630" Ref="R?"  Part="1" 
AR Path="/5D802728/5E27E3B4/5E402630" Ref="R19"  Part="1" 
AR Path="/5D802728/5E258CFD/5E402630" Ref="R7"  Part="1" 
F 0 "R19" H 5975 2700 50  0000 L CNN
F 1 "10k" H 5975 2600 50  0000 L CNN
F 2 "Resistor_SMD:R_0805_2012Metric" V 5980 2250 50  0001 C CNN
F 3 "~" H 6050 2250 50  0001 C CNN
	1    6050 2250
	1    0    0    -1  
$EndComp
$Comp
L Device:R R?
U 1 1 5E402636
P 6200 2250
AR Path="/5D802728/5E402636" Ref="R?"  Part="1" 
AR Path="/5D802728/5E258CFD/5E265310/5E402636" Ref="R?"  Part="1" 
AR Path="/5D802728/5E258CFD/5E26B40F/5E402636" Ref="R?"  Part="1" 
AR Path="/5D802728/5E258CFD/5E270930/5E402636" Ref="R?"  Part="1" 
AR Path="/5D802728/5E27E3B4/5E265310/5E402636" Ref="R?"  Part="1" 
AR Path="/5D802728/5E27E3B4/5E270930/5E402636" Ref="R?"  Part="1" 
AR Path="/5D802728/5E27E3B4/5E402636" Ref="R21"  Part="1" 
AR Path="/5D802728/5E258CFD/5E402636" Ref="R9"  Part="1" 
F 0 "R21" H 6125 2700 50  0000 L CNN
F 1 "10k" H 6125 2600 50  0000 L CNN
F 2 "Resistor_SMD:R_0805_2012Metric" V 6130 2250 50  0001 C CNN
F 3 "~" H 6200 2250 50  0001 C CNN
	1    6200 2250
	1    0    0    -1  
$EndComp
Connection ~ 5900 2000
Wire Wire Line
	5900 2000 6950 2000
Wire Wire Line
	5675 2000 5900 2000
Wire Wire Line
	5900 2400 5900 2450
Wire Wire Line
	5900 2450 6050 2450
Wire Wire Line
	6050 2450 6050 2400
Wire Wire Line
	6050 2100 6050 2050
Wire Wire Line
	6050 2050 6200 2050
Wire Wire Line
	6200 2050 6200 2100
Wire Wire Line
	6200 2400 6200 2450
Wire Wire Line
	6200 2450 6375 2450
Wire Wire Line
	6375 2450 6375 2400
Wire Wire Line
	6375 2100 6375 2050
Wire Wire Line
	6375 2050 6575 2050
Wire Wire Line
	6575 2050 6575 2500
$Comp
L Device:D_Schottky D?
U 1 1 5E40264B
P 5150 2725
AR Path="/5D802728/5E40264B" Ref="D?"  Part="1" 
AR Path="/5D802728/5E258CFD/5E265310/5E40264B" Ref="D?"  Part="1" 
AR Path="/5D802728/5E258CFD/5E26B40F/5E40264B" Ref="D?"  Part="1" 
AR Path="/5D802728/5E258CFD/5E270930/5E40264B" Ref="D?"  Part="1" 
AR Path="/5D802728/5E27E3B4/5E265310/5E40264B" Ref="D?"  Part="1" 
AR Path="/5D802728/5E27E3B4/5E270930/5E40264B" Ref="D?"  Part="1" 
AR Path="/5D802728/5E27E3B4/5E40264B" Ref="D5"  Part="1" 
AR Path="/5D802728/5E258CFD/5E40264B" Ref="D1"  Part="1" 
F 0 "D5" H 4900 2725 50  0000 C CNN
F 1 "STTH1R02ZF" H 5075 2600 50  0000 C CNN
F 2 "IPB:D_SOD-123Flat" H 5150 2725 50  0001 C CNN
F 3 "https://www.st.com/resource/en/datasheet/stth1r02zf.pdf" H 5150 2725 50  0001 C CNN
	1    5150 2725
	1    0    0    -1  
$EndComp
Wire Wire Line
	5675 3250 5375 3250
Wire Wire Line
	4500 2500 4975 2500
$Comp
L Mechanical:Heatsink HS?
U 1 1 5E402658
P 7550 2500
AR Path="/5D802728/5E402658" Ref="HS?"  Part="1" 
AR Path="/5D802728/5E258CFD/5E265310/5E402658" Ref="HS?"  Part="1" 
AR Path="/5D802728/5E258CFD/5E270930/5E402658" Ref="HS?"  Part="1" 
AR Path="/5D802728/5E27E3B4/5E265310/5E402658" Ref="HS?"  Part="1" 
AR Path="/5D802728/5E27E3B4/5E270930/5E402658" Ref="HS?"  Part="1" 
AR Path="/5D802728/5E258CFD/5E402658" Ref="HS1"  Part="1" 
AR Path="/5D802728/5E27E3B4/5E402658" Ref="HS3"  Part="1" 
F 0 "HS3" H 7692 2621 50  0000 L CNN
F 1 "FK224SA220-1" H 7692 2530 50  0000 L CNN
F 2 "IPB:Heatsink_Fischer_FK224SA220-1_2xDrill1.7mm" H 7562 2500 50  0001 C CNN
F 3 "" H 7562 2500 50  0001 C CNN
	1    7550 2500
	1    0    0    -1  
$EndComp
$Comp
L IPB-rescue:Q_NMOS_DGS-Device-IPB-rescue-IPB-rescue-IPB-rescue Q?
U 1 1 5E4058A2
P 5575 4250
AR Path="/5E4058A2" Ref="Q?"  Part="1" 
AR Path="/5D802728/5E4058A2" Ref="Q?"  Part="1" 
AR Path="/5D802728/5E258CFD/5E265310/5E4058A2" Ref="Q?"  Part="1" 
AR Path="/5D802728/5E258CFD/5E26B40F/5E4058A2" Ref="Q?"  Part="1" 
AR Path="/5D802728/5E258CFD/5E270930/5E4058A2" Ref="Q?"  Part="1" 
AR Path="/5D802728/5E27E3B4/5E265310/5E4058A2" Ref="Q?"  Part="1" 
AR Path="/5D802728/5E27E3B4/5E270930/5E4058A2" Ref="Q?"  Part="1" 
AR Path="/5D802728/5E27E3B4/5E4058A2" Ref="Q4"  Part="1" 
AR Path="/5D802728/5E258CFD/5E4058A2" Ref="Q2"  Part="1" 
F 0 "Q4" H 5475 4475 50  0000 L CNN
F 1 " IPP65R045C7XKSA1" H 5650 3950 50  0000 L CNN
F 2 "Package_TO_SOT_THT:TO-220-3_Vertical" H 5775 4350 50  0001 C CNN
F 3 "https://docs.rs-online.com/43f8/0900766b814780b7.pdf" H 5575 4250 50  0001 C CNN
	1    5575 4250
	1    0    0    -1  
$EndComp
Wire Wire Line
	5675 4050 5675 3750
$Comp
L Device:R R?
U 1 1 5E4058AA
P 5175 4250
AR Path="/5E4058AA" Ref="R?"  Part="1" 
AR Path="/5D802728/5E4058AA" Ref="R?"  Part="1" 
AR Path="/5D802728/5E258CFD/5E265310/5E4058AA" Ref="R?"  Part="1" 
AR Path="/5D802728/5E258CFD/5E26B40F/5E4058AA" Ref="R?"  Part="1" 
AR Path="/5D802728/5E258CFD/5E270930/5E4058AA" Ref="R?"  Part="1" 
AR Path="/5D802728/5E27E3B4/5E265310/5E4058AA" Ref="R?"  Part="1" 
AR Path="/5D802728/5E27E3B4/5E270930/5E4058AA" Ref="R?"  Part="1" 
AR Path="/5D802728/5E27E3B4/5E4058AA" Ref="R14"  Part="1" 
AR Path="/5D802728/5E258CFD/5E4058AA" Ref="R2"  Part="1" 
F 0 "R14" V 4968 4250 50  0000 C CNN
F 1 "10" V 5059 4250 50  0000 C CNN
F 2 "Resistor_SMD:R_0805_2012Metric" V 5105 4250 50  0001 C CNN
F 3 "~" H 5175 4250 50  0001 C CNN
	1    5175 4250
	0    1    1    0   
$EndComp
Wire Wire Line
	4975 4250 4975 4475
Wire Wire Line
	4975 4250 5025 4250
Wire Wire Line
	5375 4250 5375 4475
Connection ~ 5375 4250
$Comp
L Device:R R?
U 1 1 5E4058B4
P 5375 4700
AR Path="/5D802728/5E4058B4" Ref="R?"  Part="1" 
AR Path="/5D802728/5E258CFD/5E265310/5E4058B4" Ref="R?"  Part="1" 
AR Path="/5D802728/5E258CFD/5E26B40F/5E4058B4" Ref="R?"  Part="1" 
AR Path="/5D802728/5E258CFD/5E270930/5E4058B4" Ref="R?"  Part="1" 
AR Path="/5D802728/5E27E3B4/5E265310/5E4058B4" Ref="R?"  Part="1" 
AR Path="/5D802728/5E27E3B4/5E270930/5E4058B4" Ref="R?"  Part="1" 
AR Path="/5D802728/5E27E3B4/5E4058B4" Ref="R16"  Part="1" 
AR Path="/5D802728/5E258CFD/5E4058B4" Ref="R4"  Part="1" 
F 0 "R16" H 5305 4746 50  0000 R CNN
F 1 "150k" H 5305 4655 50  0000 R CNN
F 2 "Resistor_SMD:R_0805_2012Metric" V 5305 4700 50  0001 C CNN
F 3 "~" H 5375 4700 50  0001 C CNN
	1    5375 4700
	-1   0    0    -1  
$EndComp
Wire Wire Line
	5375 4550 5375 4475
Wire Wire Line
	5375 4850 5375 5000
Connection ~ 5675 3750
Connection ~ 4975 4250
$Comp
L Device:C C?
U 1 1 5E4058BE
P 6575 4400
AR Path="/5D802728/5E4058BE" Ref="C?"  Part="1" 
AR Path="/5D802728/5E258CFD/5E265310/5E4058BE" Ref="C?"  Part="1" 
AR Path="/5D802728/5E258CFD/5E26B40F/5E4058BE" Ref="C?"  Part="1" 
AR Path="/5D802728/5E258CFD/5E270930/5E4058BE" Ref="C?"  Part="1" 
AR Path="/5D802728/5E27E3B4/5E265310/5E4058BE" Ref="C?"  Part="1" 
AR Path="/5D802728/5E27E3B4/5E270930/5E4058BE" Ref="C?"  Part="1" 
AR Path="/5D802728/5E27E3B4/5E4058BE" Ref="C11"  Part="1" 
AR Path="/5D802728/5E258CFD/5E4058BE" Ref="C6"  Part="1" 
F 0 "C11" H 6690 4446 50  0000 L CNN
F 1 "100n" H 6690 4355 50  0000 L CNN
F 2 "Capacitor_SMD:C_1812_4532Metric" H 6613 4250 50  0001 C CNN
F 3 "~" H 6575 4400 50  0001 C CNN
	1    6575 4400
	1    0    0    -1  
$EndComp
$Comp
L Device:D_Schottky D?
U 1 1 5E4058C4
P 6950 4400
AR Path="/5D802728/5E4058C4" Ref="D?"  Part="1" 
AR Path="/5D802728/5E258CFD/5E265310/5E4058C4" Ref="D?"  Part="1" 
AR Path="/5D802728/5E258CFD/5E26B40F/5E4058C4" Ref="D?"  Part="1" 
AR Path="/5D802728/5E258CFD/5E270930/5E4058C4" Ref="D?"  Part="1" 
AR Path="/5D802728/5E27E3B4/5E265310/5E4058C4" Ref="D?"  Part="1" 
AR Path="/5D802728/5E27E3B4/5E270930/5E4058C4" Ref="D?"  Part="1" 
AR Path="/5D802728/5E27E3B4/5E4058C4" Ref="D8"  Part="1" 
AR Path="/5D802728/5E258CFD/5E4058C4" Ref="D4"  Part="1" 
F 0 "D8" V 6904 4479 50  0000 L CNN
F 1 "ES1J" V 6995 4479 50  0000 L CNN
F 2 "Diode_SMD:D_SMA" H 6950 4400 50  0001 C CNN
F 3 "https://docs-emea.rs-online.com/webdocs/1386/0900766b81386437.pdf" H 6950 4400 50  0001 C CNN
	1    6950 4400
	0    1    1    0   
$EndComp
Wire Wire Line
	6950 4550 6950 4650
Wire Wire Line
	6950 4650 6575 4650
Wire Wire Line
	6575 4550 6575 4650
Connection ~ 6575 4650
Wire Wire Line
	5000 4475 4975 4475
Wire Wire Line
	5300 4475 5375 4475
Connection ~ 5375 4475
Wire Wire Line
	5375 4250 5325 4250
Wire Wire Line
	5675 4450 5675 4650
Wire Wire Line
	5675 4650 6575 4650
Connection ~ 5675 4650
Wire Wire Line
	5675 4650 5675 5000
Wire Wire Line
	6950 4250 6950 3750
Wire Wire Line
	5900 3750 5900 3850
$Comp
L Device:R R?
U 1 1 5E4058D8
P 6375 4000
AR Path="/5D802728/5E4058D8" Ref="R?"  Part="1" 
AR Path="/5D802728/5E258CFD/5E265310/5E4058D8" Ref="R?"  Part="1" 
AR Path="/5D802728/5E258CFD/5E26B40F/5E4058D8" Ref="R?"  Part="1" 
AR Path="/5D802728/5E258CFD/5E270930/5E4058D8" Ref="R?"  Part="1" 
AR Path="/5D802728/5E27E3B4/5E265310/5E4058D8" Ref="R?"  Part="1" 
AR Path="/5D802728/5E27E3B4/5E270930/5E4058D8" Ref="R?"  Part="1" 
AR Path="/5D802728/5E27E3B4/5E4058D8" Ref="R24"  Part="1" 
AR Path="/5D802728/5E258CFD/5E4058D8" Ref="R12"  Part="1" 
F 0 "R24" H 6275 4450 50  0000 L CNN
F 1 "10k" H 6275 4350 50  0000 L CNN
F 2 "Resistor_SMD:R_0805_2012Metric" V 6305 4000 50  0001 C CNN
F 3 "~" H 6375 4000 50  0001 C CNN
	1    6375 4000
	1    0    0    -1  
$EndComp
$Comp
L Device:R R?
U 1 1 5E4058DE
P 5900 4000
AR Path="/5D802728/5E4058DE" Ref="R?"  Part="1" 
AR Path="/5D802728/5E258CFD/5E265310/5E4058DE" Ref="R?"  Part="1" 
AR Path="/5D802728/5E258CFD/5E26B40F/5E4058DE" Ref="R?"  Part="1" 
AR Path="/5D802728/5E258CFD/5E270930/5E4058DE" Ref="R?"  Part="1" 
AR Path="/5D802728/5E27E3B4/5E265310/5E4058DE" Ref="R?"  Part="1" 
AR Path="/5D802728/5E27E3B4/5E270930/5E4058DE" Ref="R?"  Part="1" 
AR Path="/5D802728/5E27E3B4/5E4058DE" Ref="R18"  Part="1" 
AR Path="/5D802728/5E258CFD/5E4058DE" Ref="R6"  Part="1" 
F 0 "R18" H 5825 4450 50  0000 L CNN
F 1 "10k" H 5825 4350 50  0000 L CNN
F 2 "Resistor_SMD:R_0805_2012Metric" V 5830 4000 50  0001 C CNN
F 3 "~" H 5900 4000 50  0001 C CNN
	1    5900 4000
	1    0    0    -1  
$EndComp
$Comp
L Device:R R?
U 1 1 5E4058E4
P 6050 4000
AR Path="/5D802728/5E4058E4" Ref="R?"  Part="1" 
AR Path="/5D802728/5E258CFD/5E265310/5E4058E4" Ref="R?"  Part="1" 
AR Path="/5D802728/5E258CFD/5E26B40F/5E4058E4" Ref="R?"  Part="1" 
AR Path="/5D802728/5E258CFD/5E270930/5E4058E4" Ref="R?"  Part="1" 
AR Path="/5D802728/5E27E3B4/5E265310/5E4058E4" Ref="R?"  Part="1" 
AR Path="/5D802728/5E27E3B4/5E270930/5E4058E4" Ref="R?"  Part="1" 
AR Path="/5D802728/5E27E3B4/5E4058E4" Ref="R20"  Part="1" 
AR Path="/5D802728/5E258CFD/5E4058E4" Ref="R8"  Part="1" 
F 0 "R20" H 5975 4450 50  0000 L CNN
F 1 "10k" H 5975 4350 50  0000 L CNN
F 2 "Resistor_SMD:R_0805_2012Metric" V 5980 4000 50  0001 C CNN
F 3 "~" H 6050 4000 50  0001 C CNN
	1    6050 4000
	1    0    0    -1  
$EndComp
$Comp
L Device:R R?
U 1 1 5E4058EA
P 6200 4000
AR Path="/5D802728/5E4058EA" Ref="R?"  Part="1" 
AR Path="/5D802728/5E258CFD/5E265310/5E4058EA" Ref="R?"  Part="1" 
AR Path="/5D802728/5E258CFD/5E26B40F/5E4058EA" Ref="R?"  Part="1" 
AR Path="/5D802728/5E258CFD/5E270930/5E4058EA" Ref="R?"  Part="1" 
AR Path="/5D802728/5E27E3B4/5E265310/5E4058EA" Ref="R?"  Part="1" 
AR Path="/5D802728/5E27E3B4/5E270930/5E4058EA" Ref="R?"  Part="1" 
AR Path="/5D802728/5E27E3B4/5E4058EA" Ref="R22"  Part="1" 
AR Path="/5D802728/5E258CFD/5E4058EA" Ref="R10"  Part="1" 
F 0 "R22" H 6125 4450 50  0000 L CNN
F 1 "10k" H 6125 4350 50  0000 L CNN
F 2 "Resistor_SMD:R_0805_2012Metric" V 6130 4000 50  0001 C CNN
F 3 "~" H 6200 4000 50  0001 C CNN
	1    6200 4000
	1    0    0    -1  
$EndComp
Connection ~ 5900 3750
Wire Wire Line
	5900 3750 6950 3750
Wire Wire Line
	5675 3750 5900 3750
Wire Wire Line
	5900 4150 5900 4200
Wire Wire Line
	5900 4200 6050 4200
Wire Wire Line
	6050 4200 6050 4150
Wire Wire Line
	6050 3850 6050 3800
Wire Wire Line
	6050 3800 6200 3800
Wire Wire Line
	6200 3800 6200 3850
Wire Wire Line
	6200 4150 6200 4200
Wire Wire Line
	6200 4200 6375 4200
Wire Wire Line
	6375 4200 6375 4150
Wire Wire Line
	6375 3850 6375 3800
Wire Wire Line
	6375 3800 6575 3800
Wire Wire Line
	6575 3800 6575 4250
$Comp
L Device:D_Schottky D?
U 1 1 5E4058FF
P 5150 4475
AR Path="/5D802728/5E4058FF" Ref="D?"  Part="1" 
AR Path="/5D802728/5E258CFD/5E265310/5E4058FF" Ref="D?"  Part="1" 
AR Path="/5D802728/5E258CFD/5E26B40F/5E4058FF" Ref="D?"  Part="1" 
AR Path="/5D802728/5E258CFD/5E270930/5E4058FF" Ref="D?"  Part="1" 
AR Path="/5D802728/5E27E3B4/5E265310/5E4058FF" Ref="D?"  Part="1" 
AR Path="/5D802728/5E27E3B4/5E270930/5E4058FF" Ref="D?"  Part="1" 
AR Path="/5D802728/5E27E3B4/5E4058FF" Ref="D6"  Part="1" 
AR Path="/5D802728/5E258CFD/5E4058FF" Ref="D2"  Part="1" 
F 0 "D6" H 4900 4475 50  0000 C CNN
F 1 "STTH1R02ZF" H 5075 4350 50  0000 C CNN
F 2 "IPB:D_SOD-123Flat" H 5150 4475 50  0001 C CNN
F 3 "https://www.st.com/resource/en/datasheet/stth1r02zf.pdf" H 5150 4475 50  0001 C CNN
	1    5150 4475
	1    0    0    -1  
$EndComp
Wire Wire Line
	5675 5000 5375 5000
Wire Wire Line
	4500 4250 4975 4250
$Comp
L Mechanical:Heatsink HS?
U 1 1 5E40590C
P 7550 4250
AR Path="/5D802728/5E40590C" Ref="HS?"  Part="1" 
AR Path="/5D802728/5E258CFD/5E265310/5E40590C" Ref="HS?"  Part="1" 
AR Path="/5D802728/5E258CFD/5E270930/5E40590C" Ref="HS?"  Part="1" 
AR Path="/5D802728/5E27E3B4/5E265310/5E40590C" Ref="HS?"  Part="1" 
AR Path="/5D802728/5E27E3B4/5E270930/5E40590C" Ref="HS?"  Part="1" 
AR Path="/5D802728/5E258CFD/5E40590C" Ref="HS2"  Part="1" 
AR Path="/5D802728/5E27E3B4/5E40590C" Ref="HS4"  Part="1" 
F 0 "HS4" H 7692 4371 50  0000 L CNN
F 1 "FK224SA220-1" H 7692 4280 50  0000 L CNN
F 2 "IPB:Heatsink_Fischer_FK224SA220-1_2xDrill1.7mm" H 7562 4250 50  0001 C CNN
F 3 "" H 7562 4250 50  0001 C CNN
	1    7550 4250
	1    0    0    -1  
$EndComp
Wire Wire Line
	5675 3750 5675 3250
Connection ~ 5675 3250
Wire Wire Line
	3500 3650 3500 5000
Wire Wire Line
	3500 2000 3500 3350
Wire Wire Line
	3500 2000 5675 2000
Connection ~ 3500 2000
Wire Wire Line
	3500 5000 5375 5000
Connection ~ 3500 5000
Connection ~ 5375 5000
$EndSCHEMATC
