EESchema Schematic File Version 4
EELAYER 30 0
EELAYER END
$Descr A4 11693 8268
encoding utf-8
Sheet 6 7
Title "Inverter Prototype Board"
Date "2019-09-18"
Rev "Draft"
Comp "Atelier Libre d'Électronique Pour l'Energie Auto-produite"
Comment1 "Gilles LONGUET"
Comment2 "Isolated power supply block"
Comment3 ""
Comment4 ""
$EndDescr
$Comp
L power:GNDPWR #PWR025
U 1 1 5DD986DB
P 6750 6050
F 0 "#PWR025" H 6750 5850 50  0001 C CNN
F 1 "GNDPWR" H 6754 5896 50  0000 C CNN
F 2 "" H 6750 6000 50  0001 C CNN
F 3 "" H 6750 6000 50  0001 C CNN
	1    6750 6050
	1    0    0    -1  
$EndComp
$Comp
L IPB-cache:15V_iso #PWR028
U 1 1 5DD9B252
P 8225 2750
F 0 "#PWR028" H 8225 2600 50  0001 C CNN
F 1 "15V_iso" H 8240 2923 50  0000 C CNN
F 2 "" H 8225 2750 50  0001 C CNN
F 3 "" H 8225 2750 50  0001 C CNN
	1    8225 2750
	1    0    0    -1  
$EndComp
$Comp
L power:+24V #PWR018
U 1 1 5DDA1963
P 1000 2750
F 0 "#PWR018" H 1000 2600 50  0001 C CNN
F 1 "+24V" H 1015 2923 50  0000 C CNN
F 2 "" H 1000 2750 50  0001 C CNN
F 3 "" H 1000 2750 50  0001 C CNN
	1    1000 2750
	1    0    0    -1  
$EndComp
$Comp
L Device:CP_Small C18
U 1 1 5DE6F9B7
P 4100 3025
F 0 "C18" H 4188 3071 50  0000 L CNN
F 1 "22u" H 4188 2980 50  0000 L CNN
F 2 "Capacitor_THT:CP_Radial_D5.0mm_P2.00mm" H 4100 3025 50  0001 C CNN
F 3 "https://docs.rs-online.com/22a6/0900766b80649a0a.pdf" H 4100 3025 50  0001 C CNN
F 4 "UVR1H220MDD" H 4100 3025 50  0001 C CNN "Model"
	1    4100 3025
	1    0    0    -1  
$EndComp
Wire Wire Line
	4100 2925 4100 2750
Wire Wire Line
	4100 3225 4100 3125
$Comp
L power:GND #PWR021
U 1 1 5DE70CA4
P 4100 3225
F 0 "#PWR021" H 4100 2975 50  0001 C CNN
F 1 "GND" H 4105 3052 50  0000 C CNN
F 2 "" H 4100 3225 50  0001 C CNN
F 3 "" H 4100 3225 50  0001 C CNN
	1    4100 3225
	1    0    0    -1  
$EndComp
$Comp
L Device:CP_Small C19
U 1 1 5DE7192F
P 4425 3025
F 0 "C19" H 4513 3071 50  0000 L CNN
F 1 "22u" H 4513 2980 50  0000 L CNN
F 2 "Capacitor_THT:CP_Radial_D5.0mm_P2.00mm" H 4425 3025 50  0001 C CNN
F 3 "https://docs.rs-online.com/22a6/0900766b80649a0a.pdf" H 4425 3025 50  0001 C CNN
F 4 "UVR1H220MDD" H 4425 3025 50  0001 C CNN "Model"
	1    4425 3025
	1    0    0    -1  
$EndComp
Wire Wire Line
	4425 2925 4425 2750
Wire Wire Line
	4425 3225 4425 3125
$Comp
L power:GND #PWR022
U 1 1 5DE71937
P 4425 3225
F 0 "#PWR022" H 4425 2975 50  0001 C CNN
F 1 "GND" H 4430 3052 50  0000 C CNN
F 2 "" H 4425 3225 50  0001 C CNN
F 3 "" H 4425 3225 50  0001 C CNN
	1    4425 3225
	1    0    0    -1  
$EndComp
$Comp
L Device:CP_Small C20
U 1 1 5DE71FFA
P 4750 3025
F 0 "C20" H 4838 3071 50  0000 L CNN
F 1 "22u" H 4838 2980 50  0000 L CNN
F 2 "Capacitor_THT:CP_Radial_D5.0mm_P2.00mm" H 4750 3025 50  0001 C CNN
F 3 "https://docs.rs-online.com/22a6/0900766b80649a0a.pdf" H 4750 3025 50  0001 C CNN
F 4 "UVR1H220MDD" H 4750 3025 50  0001 C CNN "Model"
	1    4750 3025
	1    0    0    -1  
$EndComp
Wire Wire Line
	4750 2925 4750 2750
Wire Wire Line
	4750 3225 4750 3125
$Comp
L power:GND #PWR023
U 1 1 5DE72002
P 4750 3225
F 0 "#PWR023" H 4750 2975 50  0001 C CNN
F 1 "GND" H 4755 3052 50  0000 C CNN
F 2 "" H 4750 3225 50  0001 C CNN
F 3 "" H 4750 3225 50  0001 C CNN
	1    4750 3225
	1    0    0    -1  
$EndComp
Connection ~ 4750 2750
Wire Wire Line
	4750 2750 4425 2750
Connection ~ 4425 2750
Wire Wire Line
	4425 2750 4100 2750
Wire Wire Line
	7450 2925 7450 2750
Wire Wire Line
	7450 3225 7450 3125
Wire Wire Line
	7775 2925 7775 2750
Wire Wire Line
	7775 3225 7775 3125
Wire Wire Line
	8225 2925 8225 2750
Wire Wire Line
	8225 3225 8225 3125
Connection ~ 7775 2750
Wire Wire Line
	7775 2750 8225 2750
Connection ~ 7450 2750
Wire Wire Line
	7450 2750 7775 2750
$Comp
L Device:C_Small C23
U 1 1 5DE7604C
P 8225 3025
F 0 "C23" H 8317 3071 50  0000 L CNN
F 1 "100n" H 8317 2980 50  0000 L CNN
F 2 "Capacitor_SMD:C_0805_2012Metric" H 8225 3025 50  0001 C CNN
F 3 "~" H 8225 3025 50  0001 C CNN
	1    8225 3025
	1    0    0    -1  
$EndComp
Connection ~ 8225 2750
$Comp
L Device:C_Small C22
U 1 1 5DE78FBB
P 7775 3025
F 0 "C22" H 7867 3071 50  0000 L CNN
F 1 "1u" H 7867 2980 50  0000 L CNN
F 2 "Capacitor_SMD:C_0805_2012Metric" H 7775 3025 50  0001 C CNN
F 3 "~" H 7775 3025 50  0001 C CNN
	1    7775 3025
	1    0    0    -1  
$EndComp
Wire Wire Line
	8600 2750 8225 2750
Wire Wire Line
	8975 2750 9325 2750
$Comp
L IPB-cache:5V_iso #PWR032
U 1 1 5DE7B00D
P 9875 2750
F 0 "#PWR032" H 9875 2600 50  0001 C CNN
F 1 "5V_iso" H 9892 2923 50  0000 C CNN
F 2 "" H 9875 2750 50  0001 C CNN
F 3 "" H 9875 2750 50  0001 C CNN
	1    9875 2750
	1    0    0    -1  
$EndComp
$Comp
L Device:CP_Small C21
U 1 1 5DEA1B27
P 7450 3025
F 0 "C21" H 7538 3071 50  0000 L CNN
F 1 "22u" H 7538 2980 50  0000 L CNN
F 2 "Capacitor_THT:CP_Radial_D5.0mm_P2.00mm" H 7450 3025 50  0001 C CNN
F 3 "https://docs.rs-online.com/22a6/0900766b80649a0a.pdf" H 7450 3025 50  0001 C CNN
F 4 "UVR1H220MDD" H 7450 3025 50  0001 C CNN "Model"
	1    7450 3025
	1    0    0    -1  
$EndComp
$Comp
L Device:R R32
U 1 1 5DEAAF56
P 1600 2750
F 0 "R32" V 1393 2750 50  0000 C CNN
F 1 "150m" V 1484 2750 50  0000 C CNN
F 2 "Resistor_SMD:R_0603_1608Metric" V 1530 2750 50  0001 C CNN
F 3 "https://docs.rs-online.com/7d57/0900766b813b869e.pdf" H 1600 2750 50  0001 C CNN
F 4 "ERJ3BSFR15V" H 1600 2750 50  0001 C CNN "Model"
	1    1600 2750
	0    1    1    0   
$EndComp
Wire Wire Line
	1450 2750 1400 2750
Wire Wire Line
	1750 2750 1800 2750
Connection ~ 4100 2750
$Comp
L power:GNDPWR #PWR026
U 1 1 5DEACDA3
P 7450 3225
F 0 "#PWR026" H 7450 3025 50  0001 C CNN
F 1 "GNDPWR" H 7454 3071 50  0000 C CNN
F 2 "" H 7450 3175 50  0001 C CNN
F 3 "" H 7450 3175 50  0001 C CNN
	1    7450 3225
	1    0    0    -1  
$EndComp
$Comp
L power:GNDPWR #PWR027
U 1 1 5DEACF53
P 7775 3225
F 0 "#PWR027" H 7775 3025 50  0001 C CNN
F 1 "GNDPWR" H 7779 3071 50  0000 C CNN
F 2 "" H 7775 3175 50  0001 C CNN
F 3 "" H 7775 3175 50  0001 C CNN
	1    7775 3225
	1    0    0    -1  
$EndComp
$Comp
L power:GNDPWR #PWR029
U 1 1 5DEAD351
P 8225 3225
F 0 "#PWR029" H 8225 3025 50  0001 C CNN
F 1 "GNDPWR" H 8229 3071 50  0000 C CNN
F 2 "" H 8225 3175 50  0001 C CNN
F 3 "" H 8225 3175 50  0001 C CNN
	1    8225 3225
	1    0    0    -1  
$EndComp
$Comp
L Device:R R33
U 1 1 5DEB43F6
P 8750 2750
F 0 "R33" V 8543 2750 50  0000 C CNN
F 1 "1k" V 8634 2750 50  0000 C CNN
F 2 "Resistor_SMD:R_0805_2012Metric" V 8680 2750 50  0001 C CNN
F 3 "https://docs.rs-online.com/51fb/0900766b814fde72.pdf" H 8750 2750 50  0001 C CNN
F 4 "RK73H2ATTD1001F" H 8750 2750 50  0001 C CNN "Model"
	1    8750 2750
	0    1    1    0   
$EndComp
$Comp
L Device:D_Zener_Small D11
U 1 1 5DEB5A51
P 8975 3025
F 0 "D11" V 8925 2750 50  0000 L CNN
F 1 "5.1V" V 9025 2750 50  0000 L CNN
F 2 "Package_TO_SOT_SMD:SOT-23" V 8975 3025 50  0001 C CNN
F 3 "https://docs.rs-online.com/1650/0900766b81574fa7.pdf" V 8975 3025 50  0001 C CNN
F 4 "SZMMBZ5231BLT3G" H 8975 3025 50  0001 C CNN "Model"
	1    8975 3025
	0    1    1    0   
$EndComp
$Comp
L power:GNDPWR #PWR030
U 1 1 5DEB6B11
P 8975 3225
F 0 "#PWR030" H 8975 3025 50  0001 C CNN
F 1 "GNDPWR" H 8979 3071 50  0000 C CNN
F 2 "" H 8975 3175 50  0001 C CNN
F 3 "" H 8975 3175 50  0001 C CNN
	1    8975 3225
	1    0    0    -1  
$EndComp
Wire Wire Line
	8975 3225 8975 3125
$Comp
L Device:C_Small C24
U 1 1 5DEB89A6
P 9325 3025
F 0 "C24" H 9417 3071 50  0000 L CNN
F 1 "100n" H 9417 2980 50  0000 L CNN
F 2 "Capacitor_SMD:C_0805_2012Metric" H 9325 3025 50  0001 C CNN
F 3 "~" H 9325 3025 50  0001 C CNN
	1    9325 3025
	1    0    0    -1  
$EndComp
$Comp
L power:GNDPWR #PWR031
U 1 1 5DEB89AC
P 9325 3225
F 0 "#PWR031" H 9325 3025 50  0001 C CNN
F 1 "GNDPWR" H 9329 3071 50  0000 C CNN
F 2 "" H 9325 3175 50  0001 C CNN
F 3 "" H 9325 3175 50  0001 C CNN
	1    9325 3225
	1    0    0    -1  
$EndComp
Wire Wire Line
	8975 2750 8975 2925
Wire Wire Line
	9325 2925 9325 2750
Connection ~ 9325 2750
Wire Wire Line
	9325 2750 9550 2750
Wire Wire Line
	9325 3125 9325 3225
Wire Wire Line
	8975 2750 8900 2750
Connection ~ 8975 2750
Wire Wire Line
	1900 3600 1400 3600
Wire Wire Line
	1400 3600 1400 2750
Connection ~ 1400 2750
Wire Wire Line
	1400 2750 1000 2750
Wire Wire Line
	1800 2750 1800 3800
Wire Wire Line
	1800 3800 1900 3800
Connection ~ 1800 2750
Wire Wire Line
	1800 2750 4100 2750
$Comp
L power:VCC #PWR019
U 1 1 5DECCE26
P 2300 3250
F 0 "#PWR019" H 2300 3100 50  0001 C CNN
F 1 "VCC" H 2317 3423 50  0000 C CNN
F 2 "" H 2300 3250 50  0001 C CNN
F 3 "" H 2300 3250 50  0001 C CNN
	1    2300 3250
	1    0    0    -1  
$EndComp
Wire Wire Line
	2300 3250 2300 3300
$Comp
L power:GND #PWR020
U 1 1 5DECE7E9
P 2300 4300
F 0 "#PWR020" H 2300 4050 50  0001 C CNN
F 1 "GND" H 2305 4127 50  0000 C CNN
F 2 "" H 2300 4300 50  0001 C CNN
F 3 "" H 2300 4300 50  0001 C CNN
	1    2300 4300
	1    0    0    -1  
$EndComp
Wire Wire Line
	2300 4300 2300 4250
Wire Wire Line
	2800 3500 3050 3500
$Comp
L Amplifier_Current:NCS210 U3
U 1 1 5DED28B4
P 2300 3700
F 0 "U3" H 2050 4075 50  0000 C CNN
F 1 "NCS210" H 2575 4075 50  0000 C CNN
F 2 "Package_TO_SOT_SMD:SOT-363_SC-70-6" H 2300 3700 50  0001 C CNN
F 3 "https://docs.rs-online.com/7362/0900766b814b9966.pdf" H 2300 3700 50  0001 C CNN
	1    2300 3700
	1    0    0    -1  
$EndComp
Text HLabel 3375 3750 2    50   Input ~ 0
offset
Wire Wire Line
	2800 3700 2900 3700
$Comp
L Jumper:SolderJumper_3_Open JP2
U 1 1 5DEE82EC
P 3250 3950
F 0 "JP2" V 3204 4018 50  0000 L CNN
F 1 "offset/gnd" V 3295 4018 50  0000 L CNN
F 2 "Jumper:SolderJumper-3_P1.3mm_Open_RoundedPad1.0x1.5mm" H 3250 3950 50  0001 C CNN
F 3 "~" H 3250 3950 50  0001 C CNN
	1    3250 3950
	0    1    1    0   
$EndComp
Wire Wire Line
	3375 3750 3250 3750
Wire Wire Line
	2900 3700 2900 3950
Wire Wire Line
	2900 3950 3075 3950
Wire Wire Line
	3250 4150 3250 4250
Wire Wire Line
	3250 4250 2300 4250
Connection ~ 2300 4250
Wire Wire Line
	2300 4250 2300 4000
Text HLabel 3050 3500 2    50   Output ~ 0
i_iso
Text Label 2900 3950 0    50   ~ 0
ref
$Comp
L power:PWR_FLAG #FLG03
U 1 1 5DF20053
P 3075 3825
F 0 "#FLG03" H 3075 3900 50  0001 C CNN
F 1 "PWR_FLAG" H 3075 3998 50  0000 C CNN
F 2 "" H 3075 3825 50  0001 C CNN
F 3 "~" H 3075 3825 50  0001 C CNN
	1    3075 3825
	1    0    0    -1  
$EndComp
Wire Wire Line
	3075 3825 3075 3950
Connection ~ 3075 3950
Wire Wire Line
	3075 3950 3100 3950
$Comp
L power:PWR_FLAG #FLG06
U 1 1 5DF26917
P 9550 2750
F 0 "#FLG06" H 9550 2825 50  0001 C CNN
F 1 "PWR_FLAG" H 9550 2923 50  0000 C CNN
F 2 "" H 9550 2750 50  0001 C CNN
F 3 "~" H 9550 2750 50  0001 C CNN
	1    9550 2750
	1    0    0    -1  
$EndComp
Connection ~ 9550 2750
Wire Wire Line
	9550 2750 9875 2750
$Comp
L power:PWR_FLAG #FLG?
U 1 1 5DF29BF2
P 7125 6050
AR Path="/5DF29BF2" Ref="#FLG?"  Part="1" 
AR Path="/5D802F85/5DF29BF2" Ref="#FLG04"  Part="1" 
F 0 "#FLG04" H 7125 6125 50  0001 C CNN
F 1 "PWR_FLAG" H 7125 6223 50  0000 C CNN
F 2 "" H 7125 6050 50  0001 C CNN
F 3 "~" H 7125 6050 50  0001 C CNN
	1    7125 6050
	1    0    0    1   
$EndComp
Wire Wire Line
	7125 6050 7125 6000
Wire Wire Line
	7125 6000 6750 6000
Wire Wire Line
	6750 6000 6750 6050
$Comp
L power:GND #PWR024
U 1 1 5DD97252
P 5250 6000
F 0 "#PWR024" H 5250 5750 50  0001 C CNN
F 1 "GND" H 5255 5827 50  0000 C CNN
F 2 "" H 5250 6000 50  0001 C CNN
F 3 "" H 5250 6000 50  0001 C CNN
	1    5250 6000
	1    0    0    -1  
$EndComp
Wire Wire Line
	6750 6000 6750 5650
Wire Wire Line
	6750 3650 6500 3650
Connection ~ 6750 6000
Wire Wire Line
	6500 4650 6750 4650
Connection ~ 6750 4650
Wire Wire Line
	6750 4650 6750 3650
Wire Wire Line
	6500 5650 6750 5650
Connection ~ 6750 5650
Wire Wire Line
	6750 5650 6750 4650
Wire Wire Line
	5250 6000 5250 5650
Wire Wire Line
	5250 3650 5500 3650
Wire Wire Line
	5500 4650 5250 4650
Connection ~ 5250 4650
Wire Wire Line
	5250 4650 5250 3650
Wire Wire Line
	5250 5650 5500 5650
Connection ~ 5250 5650
Wire Wire Line
	5250 5650 5250 4650
Wire Wire Line
	5500 5250 5375 5250
Wire Wire Line
	5375 5250 5375 4250
Wire Wire Line
	5375 2750 4750 2750
Wire Wire Line
	5500 3250 5375 3250
Connection ~ 5375 3250
Wire Wire Line
	5375 3250 5375 2750
Wire Wire Line
	5500 4250 5375 4250
Connection ~ 5375 4250
Wire Wire Line
	5375 4250 5375 3250
Wire Wire Line
	6500 5250 6650 5250
Wire Wire Line
	6650 5250 6650 4250
Wire Wire Line
	6650 2750 7450 2750
Wire Wire Line
	6500 3250 6650 3250
Connection ~ 6650 3250
Wire Wire Line
	6650 3250 6650 2750
Wire Wire Line
	6500 4250 6650 4250
Connection ~ 6650 4250
Wire Wire Line
	6650 4250 6650 3250
$Comp
L IPB-cache:TBA-2413 U7
U 1 1 5E0291BF
P 6000 3450
F 0 "U7" H 6000 3917 50  0000 C CNN
F 1 "TBA-2413" H 6000 3826 50  0000 C CNN
F 2 "IPB:TracoPower_TBA_1W" H 6000 3100 50  0001 C CNN
F 3 "https://docs.rs-online.com/31f4/0900766b816f1899.pdf" H 6000 2950 50  0001 C CNN
	1    6000 3450
	1    0    0    -1  
$EndComp
$Comp
L IPB-cache:TBA-2413 U8
U 1 1 5E029EA3
P 6000 4450
F 0 "U8" H 6000 4917 50  0000 C CNN
F 1 "TBA-2413" H 6000 4826 50  0000 C CNN
F 2 "IPB:TracoPower_TBA_1W" H 6000 4100 50  0001 C CNN
F 3 "https://docs.rs-online.com/31f4/0900766b816f1899.pdf" H 6000 3950 50  0001 C CNN
	1    6000 4450
	1    0    0    -1  
$EndComp
$Comp
L IPB-cache:TBA-2413 U9
U 1 1 5E02ABF3
P 6000 5450
F 0 "U9" H 6000 5917 50  0000 C CNN
F 1 "TBA-2413" H 6000 5826 50  0000 C CNN
F 2 "IPB:TracoPower_TBA_1W" H 6000 5100 50  0001 C CNN
F 3 "https://docs.rs-online.com/31f4/0900766b816f1899.pdf" H 6000 4950 50  0001 C CNN
	1    6000 5450
	1    0    0    -1  
$EndComp
$Comp
L power:PWR_FLAG #FLG0101
U 1 1 5E445A9B
P 5375 2750
F 0 "#FLG0101" H 5375 2825 50  0001 C CNN
F 1 "PWR_FLAG" H 5375 2923 50  0000 C CNN
F 2 "" H 5375 2750 50  0001 C CNN
F 3 "~" H 5375 2750 50  0001 C CNN
	1    5375 2750
	1    0    0    -1  
$EndComp
Connection ~ 5375 2750
$Comp
L power:PWR_FLAG #FLG0102
U 1 1 5E44C90F
P 7775 2750
F 0 "#FLG0102" H 7775 2825 50  0001 C CNN
F 1 "PWR_FLAG" H 7775 2923 50  0000 C CNN
F 2 "" H 7775 2750 50  0001 C CNN
F 3 "~" H 7775 2750 50  0001 C CNN
	1    7775 2750
	1    0    0    -1  
$EndComp
$EndSCHEMATC
