(module Capacitor_THT:C_Rect_L41.5mm_W31.0mm_P37.50mm_MKS4 (layer F.Cu) (tedit 5AE50EF0)
  (descr "C, Rect series, Radial, pin pitch=37.50mm, , length*width=41.5*31mm^2, Capacitor, http://www.wima.com/EN/WIMA_MKS_4.pdf")
  (tags "C Rect series Radial pin pitch 37.50mm  length 41.5mm width 31mm Capacitor")
  (fp_text reference C12 (at 18.75 -16.75 -180) (layer F.SilkS)
    (effects (font (size 1 1) (thickness 0.15)))
  )
  (fp_text value 10u (at 18.75 16.75 -180) (layer F.Fab)
    (effects (font (size 1 1) (thickness 0.15)))
  )
  (fp_line (start -2 -15.5) (end -2 15.5) (layer F.Fab) (width 0.1))
  (fp_line (start -2 15.5) (end 39.5 15.5) (layer F.Fab) (width 0.1))
  (fp_line (start 39.5 15.5) (end 39.5 -15.5) (layer F.Fab) (width 0.1))
  (fp_line (start 39.5 -15.5) (end -2 -15.5) (layer F.Fab) (width 0.1))
  (fp_line (start -2.12 -15.62) (end 39.62 -15.62) (layer F.SilkS) (width 0.12))
  (fp_line (start -2.12 15.62) (end 39.62 15.62) (layer F.SilkS) (width 0.12))
  (fp_line (start -2.12 -15.62) (end -2.12 15.62) (layer F.SilkS) (width 0.12))
  (fp_line (start 39.62 -15.62) (end 39.62 15.62) (layer F.SilkS) (width 0.12))
  (fp_line (start -2.25 -15.75) (end -2.25 15.75) (layer F.CrtYd) (width 0.05))
  (fp_line (start -2.25 15.75) (end 39.75 15.75) (layer F.CrtYd) (width 0.05))
  (fp_line (start 39.75 15.75) (end 39.75 -15.75) (layer F.CrtYd) (width 0.05))
  (fp_line (start 39.75 -15.75) (end -2.25 -15.75) (layer F.CrtYd) (width 0.05))
  (fp_text user %R (at 18.75 0 -180) (layer F.Fab)
    (effects (font (size 1 1) (thickness 0.15)))
  )
  (pad 1 thru_hole circle (at 0 0) (size 2.8 2.8) (drill 1.4) (layers *.Cu *.Mask))
  (pad 2 thru_hole circle (at 37.5 0) (size 2.8 2.8) (drill 1.4) (layers *.Cu *.Mask))
  (model ${KISYS3DMOD}/Capacitor_THT.3dshapes/C_Rect_L41.5mm_W31.0mm_P37.50mm_MKS4.wrl
    (at (xyz 0 0 0))
    (scale (xyz 1 1 1))
    (rotate (xyz 0 0 0))
  )
)
